{
  "Start screen - Page Header": {
    "variable name": "start-screen-page-header",
    "content": "Digital Health Assistant"
  },
  "Start screen - Page Subheading": {
    "variable name": "start-screen-page-subheading",
    "content": "Helping you live well with MS"
  },
  "Start screen - Continue button label": {
    "variable name": "start-screen-continue-button-label",
    "content": "Sign up now"
  },
  "Start screen - What is this? heading": {
    "variable name": "start-screen-what-is-this-heading",
    "content": "How will this help me?"
  },
  "Start screen - What is this? text content": {
    "variable name": "start-screen-what-is-this-text-content",
    "content": "<p>The Digital Health Assistant learns from your answers and feedback and sends you information tailored to you and your situation.</p><p>It's easy to get started:</p><ol><li>Tell us some things about yourself</li><li>Choose some topics</li><li>Get emails based on what you tell us</li><li>Give feedback on the emails so we can make them better</li></ol>"
  },
  "Start screen - Who is it for? heading": {
    "variable name": "start-screen-who-is-it-for-heading",
    "content": "Who's this for?"
  },
  "Start screen - Who is it for? text content": {
    "variable name": "start-screen-who-is-it-for-text-content",
    "content": "This service is in testing right now, so it's just for you.\n\nWhen it's ready everyone with MS can use it."
  },
  "Start screen - Security heading": {
    "variable name": "start-screen-security-heading",
    "content": "Keeping your data safe"
  },
  "Start screen - Security text content": {
    "variable name": "start-screen-security-text-content",
    "content": "Thank you for trusting us to respect your privacy. We'll only use the information you provide to send relevant email content to you once a week. You can change or remove your details at any time."
  },
  "Why Important - Page Header": {
    "variable name": "why-important-page-header",
    "content": "Why is this important to you?"
  },
  "Why Important - Page Subheading": {
    "variable name": "why-important-page-subheading",
    "content": "Helping you live well with MS"
  },
  "Why Important - 'Please choose' heading": {
    "variable name": "why-important-please-choose-heading",
    "content": "Please choose one of these options"
  },
  "Why Important - I have condition text": {
    "variable name": "why-important-i-have-condition-text",
    "content": "I have MS"
  },
  "Why Important - I don't have condition text": {
    "variable name": "why-important-i-dont-have-condition-text",
    "content": "I know someone with MS"
  },
  "Why Important - I'm not sure text": {
    "variable name": "why-important-im-not-sure-text",
    "content": "I'm not sure how to answer this"
  },
  "Why Important - Go back button label": {
    "variable name": "why-important-go-back-button-label",
    "content": "Go back"
  },
  "Were sorry - Page Header": {
    "variable name": "were-sorry-page-header",
    "content": "We're sorry"
  },
  "Were sorry - Page Subheading": {
    "variable name": "were-sorry-page-subheading",
    "content": "This service is only for people with MS right now. Here are some other ways we could help you."
  },
  "Were sorry - Content links": {
    "variable name": "were-sorry-content-links",
    "content": "<name>The MS Helpline</name>\n<content>Call us to talk about anything MS, speak to an MS Nurse, or get help with your finances.<br>0808 800 8000</content>\n\n<name>MS Community Forum</name>\n<content>Join our online community and meet people who know MS.<br>mssociety.org.uk/forum</content>\n\n<name>MS Webinars</name>\n<content>Ask the experts in our interactive information webinars<br>mssociety.org.uk/webinars</content>\n\n<name>MS Local Groups</name>\n<content>Find out what's happening near you<br>mssociety.org.uk/local</content>"
  },
  "Don't worry - Page Header": {
    "variable name": "dont-worry-page-header",
    "content": "We can help"
  },
  "Don't worry - Page Subheading": {
    "variable name": "dont-worry-page-subheading",
    "content": "Get in touch and we'll talk you through it"
  },
  "Don't worry - Content links": {
    "variable name": "dont-worry-content-links",
    "content": "<name>MS Helpline</name>\n<content>0808 800 8000<br>helpline@mssociety.org.uk</content>"
  },
  "Our promise to you - Page Header": {
    "variable name": "our-promise-to-you-page-header",
    "content": "Our promise to you"
  },
  "Our promise to you - Page Subheading": {
    "variable name": "our-promise-to-you-page-subheading",
    "content": "We'll always be open with you"
  },
  "Our promise to you - Promise heading": {
    "variable name": "our-promise-to-you-promise-heading",
    "content": "We promise:"
  },
  "Our promise to you - Promise list": {
    "variable name": "our-promise-to-you-promise-list",
    "content": "<li><svg viewBox=\"0 0 22 20\" xmlns=\"http://www.w3.org/2000/svg\"><path xmlns=\"http://www.w3.org/2000/svg\" d=\"M0 20h4V8H0v12zM22 9c0-1.1-.9-2-2-2h-6.3l1-4.6v-.3c0-.4-.2-.8-.4-1.1l-1.1-1-6.6 6.6c-.4.3-.6.8-.6 1.4v10c0 1.1.9 2 2 2h9c.8 0 1.5-.5 1.8-1.2l3-7.1c.1-.2.1-.5.1-.7V9h.1c0 .1 0 0 0 0z\" fill=\"#000\" fill-rule=\"evenodd\"></path></svg><span>Give you relevant, up-to-date information</span></li><li><svg viewBox=\"0 0 22 20\" xmlns=\"http://www.w3.org/2000/svg\"><path xmlns=\"http://www.w3.org/2000/svg\" d=\"M0 20h4V8H0v12zM22 9c0-1.1-.9-2-2-2h-6.3l1-4.6v-.3c0-.4-.2-.8-.4-1.1l-1.1-1-6.6 6.6c-.4.3-.6.8-.6 1.4v10c0 1.1.9 2 2 2h9c.8 0 1.5-.5 1.8-1.2l3-7.1c.1-.2.1-.5.1-.7V9h.1c0 .1 0 0 0 0z\" fill=\"#000\" fill-rule=\"evenodd\"></path></svg><span>Send you emails based on preferences and topics you choose</span></li><li><svg viewBox=\"0 0 22 20\" xmlns=\"http://www.w3.org/2000/svg\"><path xmlns=\"http://www.w3.org/2000/svg\" d=\"M0 20h4V8H0v12zM22 9c0-1.1-.9-2-2-2h-6.3l1-4.6v-.3c0-.4-.2-.8-.4-1.1l-1.1-1-6.6 6.6c-.4.3-.6.8-.6 1.4v10c0 1.1.9 2 2 2h9c.8 0 1.5-.5 1.8-1.2l3-7.1c.1-.2.1-.5.1-.7V9h.1c0 .1 0 0 0 0z\" fill=\"#000\" fill-rule=\"evenodd\"></path></svg><span>Use your feedback to improve your experience</span></li><li><svg viewBox=\"0 0 22 20\" xmlns=\"http://www.w3.org/2000/svg\"><path xmlns=\"http://www.w3.org/2000/svg\" d=\"M0 20h4V8H0v12zM22 9c0-1.1-.9-2-2-2h-6.3l1-4.6v-.3c0-.4-.2-.8-.4-1.1l-1.1-1-6.6 6.6c-.4.3-.6.8-.6 1.4v10c0 1.1.9 2 2 2h9c.8 0 1.5-.5 1.8-1.2l3-7.1c.1-.2.1-.5.1-.7V9h.1c0 .1 0 0 0 0z\" fill=\"#000\" fill-rule=\"evenodd\"></path></svg><span>Protect your personal information and data</span></li><li><svg viewBox=\"0 0 22 20\" xmlns=\"http://www.w3.org/2000/svg\"><path xmlns=\"http://www.w3.org/2000/svg\" d=\"M0 20h4V8H0v12zM22 9c0-1.1-.9-2-2-2h-6.3l1-4.6v-.3c0-.4-.2-.8-.4-1.1l-1.1-1-6.6 6.6c-.4.3-.6.8-.6 1.4v10c0 1.1.9 2 2 2h9c.8 0 1.5-.5 1.8-1.2l3-7.1c.1-.2.1-.5.1-.7V9h.1c0 .1 0 0 0 0z\" fill=\"#000\" fill-rule=\"evenodd\"></path></svg><span>Process your personal data in line with our <a href=\"https://www.mssociety.org.uk/privacy\" target=\"_blank\">Privacy Notice</a></span></li>"
  },
  "Our promise to you - Age request explainer": {
    "variable name": "our-promise-to-you-age-request-explainer",
    "content": "We need to know if you're over 16, as we can only sign you up if you're an adult."
  },
  "Our promise to you - Over 16 years label": {
    "variable name": "our-promise-to-you-over-16-years-label",
    "content": "I am over 16"
  },
  "Our promise to you - Sign up button label": {
    "variable name": "our-promise-to-you-sign-up-button-label",
    "content": "Sign up now"
  },
  "Just the basics - Page Header": {
    "variable name": "just-the-basics-page-header",
    "content": "Let's get started"
  },
  "Just the basics - Page Subheading": {
    "variable name": "just-the-basics-page-subheading",
    "content": "We need to know a bit about you to sign you up"
  },
  "Just the basics - Enter details heading": {
    "variable name": "just-the-basics-enter-details-heading",
    "content": "About you"
  },
  "Just the basics - First name heading": {
    "variable name": "just-the-basics-first-name-heading",
    "content": "What's your first name?"
  },
  "Just the basics - First name explainer": {
    "variable name": "just-the-basics-first-name-explainer",
    "content": "We ask this so we can create your profile"
  },
  "Just the basics - Last name heading label": {
    "variable name": "just-the-basics-last-name-heading-label",
    "content": "What's your last name?"
  },
  "Just the basics - Last name explainer": {
    "variable name": "just-the-basics-last-name-explainer",
    "content": "We ask this so we can create your profile"
  },
  "Just the basics - How we address you label": {
    "variable name": "just-the-basics-how-we-address-you-label",
    "content": "What should we call you?"
  },
  "Just the basics - How we address you explainer": {
    "variable name": "just-the-basics-how-we-address-you-explainer",
    "content": "We ask this to give you control of what we call you"
  },
  "Just the basics - What is email address label": {
    "variable name": "just-the-basics-what-is-email-address-label",
    "content": "What's your email address?"
  },
  "Just the basics - What is email address explainer": {
    "variable name": "just-the-basics-what-is-email-address-explainer",
    "content": "We ask this so we can send you emails"
  },
  "Just the basics - Choose password heading": {
    "variable name": "just-the-basics-choose-password-heading",
    "content": "Choose your password"
  },
  "Just the basics - Type password heading": {
    "variable name": "just-the-basics-type-password-heading",
    "content": "Please type your password"
  },
  "Just the basics - Password ask explainer": {
    "variable name": "just-the-basics-password-ask-explainer",
    "content": "You need to set this to keep your data safe"
  },
  "Just the basics - Add more details text": {
    "variable name": "just-the-basics-add-more-details-text",
    "content": "We'll ask you to answer more questions about yourself once you have an account."
  },
  "Just the basics - Next stage topics text": {
    "variable name": "just-the-basics-next-stage-topics-text",
    "content": "Next, you can choose some topics you'd like us to send you emails about."
  },
  "Just the basics - Continue button label": {
    "variable name": "just-the-basics-continue-button-label",
    "content": "Continue"
  },
  "Just the basics - Top of page button label": {
    "variable name": "just-the-basics-top-of-page-button-label",
    "content": "Go back to the top of the page"
  },
  "What interested in - Page Header": {
    "variable name": "what-interested-in-page-header",
    "content": "What are your interests?"
  },
  "What interested in - Page Subheading": {
    "variable name": "what-interested-in-page-subheading",
    "content": "We'll send you emails based on the topics you choose"
  },
  "What interested in - Continue button label": {
    "variable name": "what-interested-in-continue-button-label",
    "content": "To see a topic description, press the arrow on the right of the purple box."
  },
  "Dashboard - Open the menu": {
    "variable name": "dashboard-open-menu",
    "content": "Open the menu"
  },
  "Dashboard - Page Header": {
    "variable name": "dashboard-page-header",
    "content": "Welcome to your dashboard"
  },
  "Dashboard - Page Subheading": {
    "variable name": "dashboard-page-subheading",
    "content": "This is where you can update your topics and see your email rating"
  },
  "Dashboard - Continue button label": {
    "variable name": "dashboard-continue-button-label",
    "content": "To get you started, we've chosen these two topics for you. Read more about each topic by pressing the arrow on the right of the purple box. Choose accept to say you want to about that topic."
  },
  "Dashboard returning - Page Header": {
    "variable name": "dashboard-returning-page-header",
    "content": "Welcome back to your dashboard"
  },
  "Dashboard returning - Page Subheading": {
    "variable name": "dashboard-returning-page-subheading",
    "content": "Check your progress and satisfaction so far"
  },
  "Dashboard returning - How much told heading": {
    "variable name": "dashboard-returning-how-much-told-heading",
    "content": "Here's how much you've told us"
  },
  "Tell us about - Tell us Header": {
    "variable name": "tell-us-about-tell-us-header",
    "content": "Tell us about your employment situation"
  },
  "Tell us about - Page Subheading": {
    "variable name": "tell-us-about-page-subheading",
    "content": "Your answers help us send you better emails"
  },
  "Tell us about - Save all this button label": {
    "variable name": "tell-us-about-save-all-this-button-label",
    "content": "Save answers"
  },
  "My details - Page Header": {
    "variable name": "my-details-page-header",
    "content": "My details"
  },
  "My details - Page Subheading": {
    "variable name": "my-details-page-subheading",
    "content": "See all the information we hold about you"
  },
  "My details - Show and hide guidance": {
    "variable name": "my-details-show-and-hide-guidance",
    "content": "Click on the arrows on the right to show and hide your information."
  },
  "My topics - Page Header": {
    "variable name": "my-topics-page-header",
    "content": "My topics"
  },
  "My topics - Page Subheading": {
    "variable name": "my-topics-page-subheading",
    "content": "Update the topics you want to hear about"
  },
  "My topics - Chosen topics label": {
    "variable name": "my-topics-chosen-topics-label",
    "content": "Topics you've chosen"
  },
  "My topics - Chosen topics explainer": {
    "variable name": "my-topics-chosen-topics-explainer",
    "content": "These are the topics you've told us you're interested in."
  },
  "My topics - Available topics heading": {
    "variable name": "my-topics-available-topics-heading",
    "content": "Available topics"
  },
  "My topics - Available topics explainer": {
    "variable name": "my-topics-available-topics-explainer",
    "content": "These are topics you can add to your chosen topics."
  },
  "My activity - Page Header": {
    "variable name": "my-activity-page-header",
    "content": "My activity"
  },
  "My activity - Page Subheading": {
    "variable name": "my-activity-page-subheading",
    "content": "See your activity and the emails we've sent you"
  },
  "My activity - Why not feedback heading": {
    "variable name": "my-activity-why-not-feedback-heading",
    "content": "Did you like this email?"
  },
  "My activity - Why not feedback explainer": {
    "variable name": "my-activity-why-not-feedback-explainer",
    "content": "Tell us what you really think. Your feedback helps us send you better emails."
  },
  "My activity - Looking for emails heading": {
    "variable name": "my-activity-looking-for-emails-heading",
    "content": "Looking for an email?"
  },
  "My activity - Keyword search heading": {
    "variable name": "my-activity-keyword-search-heading",
    "content": "Search by keyword"
  },
  "My activity - Keyword search explainer": {
    "variable name": "my-activity-keyword-search-explainer",
    "content": "You can search your emails for certain words, like 'PIP' or 'memory'."
  },
  "My activity - Topic search heading": {
    "variable name": "my-activity-topic-search-heading",
    "content": "Search by topic"
  },
  "My activity - Topic search explainer": {
    "variable name": "my-activity-topic-search-explainer",
    "content": "See all the emails we've sent you on each topic."
  },
  "My activity - Security heading": {
    "variable name": "my-activity-security-heading",
    "content": "This week"
  },
  "My activity - Security explainer": {
    "variable name": "my-activity-security-explainer",
    "content": "This is what's happend in your activity centre this week."
  },
  "My settings - Page Header": {
    "variable name": "my-settings-page-header",
    "content": "My settings"
  },
  "My settings - Page Subheading": {
    "variable name": "my-settings-page-subheading",
    "content": "Update your details and email settings"
  },
  "My settings - Continue button label": {
    "variable name": "my-settings-continue-button-label",
    "content": "Your log in details"
  },
  "My settings - What is this? heading": {
    "variable name": "my-settings-what-is-this-heading",
    "content": "These are the details you use to log in"
  },
  "My settings - Your email explainer": {
    "variable name": "my-settings-your-email-explainer",
    "content": "We need this so we can send you emails"
  },
  "My settings - Your password explainer": {
    "variable name": "my-settings-your-password-explainer",
    "content": "This helps us keep your data safe"
  },
  "My settings - Email and topic heading": {
    "variable name": "my-settings-email-and-topic-heading",
    "content": "Email and topic settings"
  },
  "My settings - Email and topic explainer": {
    "variable name": "my-settings-email-and-topic-explainer",
    "content": "These settings are about the emails we send you"
  },
  "My settings - How often label": {
    "variable name": "my-settings-how-often-label",
    "content": "How often would you like to receive emails?"
  },
  "My settings - Send important label": {
    "variable name": "my-settings-send-important-label",
    "content": "Should we send important notifications straight away?"
  },
  "My settings - Topics chosen for you label": {
    "variable name": "my-settings-topics-chosen-for-you-label",
    "content": "Would you like us to choose topics for you?"
  },
  "My settings - Account settings heading": {
    "variable name": "my-settings-account-settings-heading",
    "content": "Account settings"
  },
  "My settings - Account settings explainer": {
    "variable name": "my-settings-account-settings-explainer",
    "content": "These settings are for deleting or pausing your account or downloading your data"
  },
  "My settings - Delete account button label": {
    "variable name": "my-settings-delete-account-button-label",
    "content": "Please delete my account and all the data you hold about me"
  },
  "My settings - Download data button label": {
    "variable name": "my-settings-download-data-button-label",
    "content": "I want to download all the data you hold about me"
  },
  "My settings - Pause account explainer": {
    "variable name": "my-settings-pause-account-explainer",
    "content": "If you want a break from the emails we send you, you can pause your account."
  },
  "My settings - Pause account button label": {
    "variable name": "my-settings-pause-account-button-label",
    "content": "I want to pause my account until I choose to restart it"
  },
  "Login - Page Header": {
    "variable name": "login-page-header",
    "content": "Log in"
  },
  "Login - Page Subheading": {
    "variable name": "login-page-subheading",
    "content": "Please enter your details to log in"
  },
  "Login - Your email label": {
    "variable name": "login-your-email-label",
    "content": "Your email address"
  },
  "Login - Your email explainer": {
    "variable name": "login-your-email-explainer",
    "content": "We need this so we know who you are"
  },
  "Login - Your password label": {
    "variable name": "login-your-password-label",
    "content": "Your password"
  },
  "Login - Your password explainer": {
    "variable name": "login-your-password-explainer",
    "content": "We need this so you can access your account securely"
  },
  "Login - Sign in now button label": {
    "variable name": "login-sign-in-now-button-label",
    "content": "Sign in now"
  },
  "Login - Forgot details button label": {
    "variable name": "login-forgot-details-button-label",
    "content": "I've forgotten my details"
  },
  "Login - Create account button label": {
    "variable name": "login-create-account-button-label",
    "content": "Create an account"
  },
  "Menu - Close this menu button label": {
    "variable name": "menu-close-this-menu-button-label",
    "content": "Close this menu"
  },
  "Menu - Log me out button label": {
    "variable name": "menu-log-me-out-button-label",
    "content": "Log me out"
  },
  "Thank you - Topic thanks heading": {
    "variable name": "thank-you-topic-thanks-heading",
    "content": "Thanks for choosing this topic"
  },
  "Thank you - Topic thanks explainer": {
    "variable name": "thank-you-topic-thanks-explainer",
    "content": "Why not explore some other topics?"
  },
  "Thank you - Show me more button label": {
    "variable name": "thank-you-show-me-more-button-label",
    "content": "Yes, show me more"
  },
  "Thank you - No thank you button label": {
    "variable name": "thank-you-no-thank-you-button-label",
    "content": "No thanks"
  },
  "Content email footer - Coping heading": {
    "variable name": "content-email-footer-coping-heading",
    "content": "Are you struggling to cope?"
  },
  "Content email footer - How we can help label": {
    "variable name": "content-email-footer-how-we-can-help-label",
    "content": "See how we can help"
  },
  "Content email footer - Importance of feedback heading": {
    "variable name": "content-email-footer-importance-of-feedback-heading",
    "content": "Your feedback is important"
  },
  "Content email footer - Importance of feedback explainer": {
    "variable name": "content-email-footer-importance-of-feedback-explainer",
    "content": "We use your feedback to learn more about the kinds of information you want. It helps us send you the best possible emails."
  },
  "Content email footer - How did email make you feel heading": {
    "variable name": "content-email-footer-how-did-email-make-you-feel-heading",
    "content": "Did you find this email helpful?"
  },
  "Coping - Page Header": {
    "variable name": "coping-page-header",
    "content": "We're sorry to hear you're struggling"
  },
  "Coping - Page Subheading": {
    "variable name": "coping-page-subheading",
    "content": "Tell us more, we'd like to help"
  },
  "Coping - Living with heading": {
    "variable name": "coping-living-with-heading",
    "content": "Living with MS can be tough"
  },
  "Coping - Living with text content": {
    "variable name": "coping-living-with-text-content",
    "content": "MS can throw a lot at you, often without warning. Whether you're struggling with symptoms, feeling low, or just having a bad day. We're here for you no matter what."
  },
  "Coping - Struggling heading": {
    "variable name": "coping-struggling-heading",
    "content": "How much are you struggling?"
  },
  "Coping - Struggling text content": {
    "variable name": "coping-struggling-text-content",
    "content": "This helps us understand how you're feeling right now"
  },
  "Coping - Coping level 1": {
    "variable name": "coping-coping-level-1",
    "content": "Just about coping"
  },
  "Coping - Coping level 2": {
    "variable name": "coping-coping-level-2",
    "content": "Coping badly"
  },
  "Coping - Coping level 3": {
    "variable name": "coping-coping-level-3",
    "content": "Coping very badly"
  },
  "Coping - Why struggling heading": {
    "variable name": "coping-why-struggling-heading",
    "content": "Why are you struggling to cope?"
  },
  "Coping - Why struggling text content": {
    "variable name": "coping-why-struggling-text-content",
    "content": "Your answer will help us support you the best way we can."
  },
  "Coping - See how we can help button label": {
    "variable name": "coping-see-how-we-can-help-button-label",
    "content": "See how we can help"
  },
  "Coping help logged out - Page Header": {
    "variable name": "coping-help-logged-out-page-header",
    "content": "We're here for you"
  },
  "Coping help logged out - Page Subheading": {
    "variable name": "coping-help-logged-out-page-subheading",
    "content": "Here's some ways we can help"
  },
  "Coping help logged out - Get in touch heading": {
    "variable name": "coping-help-logged-out-get-in-touch-heading",
    "content": "Here's how to contact us"
  },
  "Coping help logged out - Get on touch text content": {
    "variable name": "coping-help-logged-out-get-on-touch-text-content",
    "content": "You can call our MS Helpline, email us, message us on Facebook or talk it through with our forum community."
  },
  "Coping help logged out - Coping links content": {
    "variable name": "coping-help-logged-out-coping-links-content",
    "content": "<name>MS Helpline</name>\n<content>0808 800 8000<br><a href=\"mailto:helpline@mssociety.org.uk\">helpline@mssociety.org.uk</a></content>\n\n<name>Facebook</name>\n<content><a href=\"https://facebook.com/MSSociety\" target=\"_blank\">facebook.com/MSSociety</a></content>\n\n<name>Online Community Forum</name>\n<content><a href=\"https://mssociety.org.uk/forum\" target=\"_blank\">mssociety.org.uk/forum</a></content>\n\n<name>Local groups</name>\n<content><a href=\"https://mssociety.org.uk/local-groups\" target=\"_blank\">mssociety.org.uk/local-groups</a></content>"
  },
  "Coping help logged in - Page Header": {
    "variable name": "coping-help-logged-in-page-header",
    "content": "We're here for you"
  },
  "Coping help logged in - Page Subheading": {
    "variable name": "coping-help-logged-in-page-subheading",
    "content": "Here's some ways we can help"
  },
  "Coping help logged in - Also subscribed heading": {
    "variable name": "coping-help-logged-in-also-subscribed-heading",
    "content": "Just to let you know..."
  },
  "Coping help logged in - Also subscribed text content": {
    "variable name": "coping-help-logged-in-also-subscribed-text-content",
    "content": "We've subscribed you to emails we hope will help with the difficulties you're facing."
  },
  "Feedback - positive - Page Header": {
    "variable name": "feedback-positive-page-header",
    "content": "We're glad you found this email helpful"
  },
  "Feedback - positive - Page Subheading": {
    "variable name": "feedback-positive-page-subheading",
    "content": "Can you help us learn by giving some more information?"
  },
  "Feedback - positive - How useful heading": {
    "variable name": "feedback-positive-how-useful-heading",
    "content": "How useful did you find this email?"
  },
  "Feedback - positive - How useful explainer": {
    "variable name": "feedback-positive-how-useful-explainer",
    "content": "Did this email give you information you could use to manage your MS?"
  },
  "Feedback - positive - Why not useful heading": {
    "variable name": "feedback-positive-why-not-useful-heading",
    "content": "Can you tell us why it wasn't useful?"
  },
  "Feedback - positive - How relevant heading": {
    "variable name": "feedback-positive-how-relevant-heading",
    "content": "How relevant did you find this email?"
  },
  "Feedback - positive - How relevant explainer": {
    "variable name": "feedback-positive-how-relevant-explainer",
    "content": "Was this email relevant to you, your life and your experiences?"
  },
  "Feedback - positive - Rate quality heading": {
    "variable name": "feedback-positive-rate-quality-heading",
    "content": "How would you rate this email?"
  },
  "Feedback - positive - Rate quality explainer": {
    "variable name": "feedback-positive-rate-quality-explainer",
    "content": null
  },
  "Feedback - positive - Any more feedback heading": {
    "variable name": "feedback-positive-any-more-feedback-heading",
    "content": "Do you have any other feedback?"
  },
  "Feedback - positive - Any more feedback explainer": {
    "variable name": "feedback-positive-any-more-feedback-explainer",
    "content": "We value your feedback and will use it to help us improve our emails."
  },
  "Feedback - positive - Submit feedback button label": {
    "variable name": "feedback-positive-submit-feedback-button-label",
    "content": "Submit your feedback"
  },
  "Feedback - negative - Page Header": {
    "variable name": "feedback-negative-page-header",
    "content": "We're sorry you didn't find this email helpful"
  },
  "Feedback - negative - Page Subheading": {
    "variable name": "feedback-negative-page-subheading",
    "content": "Can you give us more information and help us improve?"
  },
  "Feedback thanks - Page Header": {
    "variable name": "feedback-thanks-page-header",
    "content": "Thanks for your feedback"
  },
  "Feedback thanks - Page Subheading": {
    "variable name": "feedback-thanks-page-subheading",
    "content": "You're helping us improve our emails"
  },
  "Feedback thanks - Thank you text content": {
    "variable name": "feedback-thanks-thank-you-text-content",
    "content": "The feedback you give is really appreciated. We use it to make sure we're sending you the best possible emails."
  },
  "Feedback thanks - Keep info up to date heading": {
    "variable name": "feedback-thanks-keep-info-up-to-date-heading",
    "content": "Do you need to update your information?"
  },
  "Feedback thanks - Keep info up to date explainer": {
    "variable name": "feedback-thanks-keep-info-up-to-date-explainer",
    "content": "It's important to keep your details up to date. It helps us work out what to send you. Don't worry, we'll always keep your information safe."
  },
  "Feedback thanks - Go to your dashboard button label": {
    "variable name": "feedback-thanks-go-to-your-dashboard-button-label",
    "content": "Go to your dashboard"
  },
  "Contact us - Page Header": {
    "variable name": "contact-us-page-header",
    "content": "Contact us"
  },
  "Contact us - Page Subheading": {
    "variable name": "contact-us-page-subheading",
    "content": "Find out how to get in touch"
  },
  "Contact us - Page Content": {
    "variable name": "contact-us-page-content",
    "content": "<H2>Get help with DHA</H2>\n<p>If you'd like any help, including managing your data or deleting your account, email us on DHA@mssociety.org.uk</p>\n\n<H2>The MS Helpline</H2>\n<p>Call us to talk about anything MS, speak to an MS Nurse, or get help with your finances.<br>0808 800 8000</p>\n\n<H2>MS Community Forum</H2>\n<p>Join our online community and meet people who know MS.<br>mssociety.org.uk/forum</p>\n\n<H2>MS Local Groups</H2>\n<p>Find out what's happening near you<br>mssociety.org.uk/local</p>"
  },
  "Use of cookies - Page Header": {
    "variable name": "use-of-cookies-page-header",
    "content": "Use of cookies"
  },
  "Use of cookies - Page Subheading": {
    "variable name": "use-of-cookies-page-subheading",
    "content": "Find out how we use cookies to make your experience better"
  },
  "Use of cookies - Page Content": {
    "variable name": "use-of-cookies-page-content",
    "content": "Cookies are small text files created when you visit a website and are stored in the cookies directory of your computer or devise you use to access that site. They contain a unique number, and every time you return to the cookies’ originating website, the cookies stored on your device get recognised.\n\nWe use cookies as part of DHA and on our other digital services including our website. <a href=\"https://www.mssociety.org.uk/cookie-policy\">Read more in our cookie policy on our website</a>"
  },
  "Data protection policy - Page Header": {
    "variable name": "data-protection-policy-page-header",
    "content": "Data protection policy"
  },
  "Data protection policy - Page Subheading": {
    "variable name": "data-protection-policy-page-subheading",
    "content": null
  },
  "Data protection policy - Page Content": {
    "variable name": "data-protection-policy-page-content",
    "content": null
  },
  "Terms of Use - Page Header": {
    "variable name": "terms-of-use-page-header",
    "content": "Terms of Use"
  },
  "Terms of Use - Page Subheading": {
    "variable name": "terms-of-use-page-subheading",
    "content": "Here's a few important things you need to know about using our Digital Health Assistant."
  },
  "Terms of Use - Page Content": {
    "variable name": "terms-of-use-page-content",
    "content": "By accessing and using our MS Society Digital Health Assistant (as a guest or registered user), you agree you've read and agree to be bound by our Terms of Use.  If you don't agree to our Terms of Use you should stop accessing using our Website Services immediately.\n\nWe can change and update our Terms of Use at any time without giving you prior notice, but we will post any updates to our website. You are responsible for regularly viewing these Terms of Use. By continuing to use our digital services after we have posted any changes, you're indicating you accept our new Terms of Use.\n\n<a href=\"https://www.mssociety.org.uk/terms-of-use\">Read our full terms of use on our website.</a>"
  },
  "Terms of Use - Redirect": {
    "variable name": "terms-of-use-redirect",
    "content": "https://www.mssociety.org.uk/terms-of-use"
  },
  "Accessibility statement - Page Header": {
    "variable name": "accessibility-statement-page-header",
    "content": "Accessibility statement"
  },
  "Accessibility statement - Page Subheading": {
    "variable name": "accessibility-statement-page-subheading",
    "content": null
  },
  "Accessibility statement - Page Content": {
    "variable name": "accessibility-statement-page-content",
    "content": null
  },
  "Footer - Footer Content": {
    "variable name": "footer-footer-content",
    "content": null
  },
  "Coping OK - Page Header": {
    "variable name": "coping-ok-page-header",
    "content": "Thank you for letting us know"
  },
  "Coping OK - Page Subheading": {
    "variable name": "coping-ok-page-subheading",
    "content": null
  },
  "Coping OK - Get in touch heading": {
    "variable name": "coping-ok-get-in-touch-heading",
    "content": null
  },
  "Coping OK - Get in touch text content": {
    "variable name": "coping-ok-get-in-touch-text-content",
    "content": "We’re glad that things feel okay for you today. But we know that at times, living with multiple sclerosis can be hard. Below we have included some ways that we can support you if you need it later on.\n\nWhy not bookmark this page so you can come back to it - you will find this option in your internet browser menu."
  },
  "Coping OK - Coping links content": {
    "variable name": "coping-ok-coping-links-content",
    "content": "<name>MS Helpline</name>\n<content>0808 800 8000<br><a href=\"mailto:helpline@mssociety.org.uk\">helpline@mssociety.org.uk</a></content>\n\n<name>Facebook</name>\n<content><a href=\"https://facebook.com/MSSociety\" target=\"_blank\">facebook.com/MSSociety</a></content>\n\n<name>Online Community Forum</name>\n<content><a href=\"https://mssociety.org.uk/forum\" target=\"_blank\">mssociety.org.uk/forum</a></content>\n\n<name>Local groups</name>\n<content><a href=\"https://mssociety.org.uk/local-groups\" target=\"_blank\">mssociety.org.uk/local-groups</a></content>"
  }
}